<?xml version="1.0" encoding="UTF-8" standalone="no"?>
<svg
   xmlns:dc="http://purl.org/dc/elements/1.1/"
   xmlns:cc="http://creativecommons.org/ns#"
   xmlns:rdf="http://www.w3.org/1999/02/22-rdf-syntax-ns#"
   xmlns:svg="http://www.w3.org/2000/svg"
   xmlns="http://www.w3.org/2000/svg"
   xmlns:sodipodi="http://sodipodi.sourceforge.net/DTD/sodipodi-0.dtd"
   xmlns:inkscape="http://www.inkscape.org/namespaces/inkscape"
   sodipodi:docname="shapes-f10.svg"
   inkscape:version="1.0beta1 (a4ee55bc41, 2019-11-15)"
   sodipodi:version="0.32"
   id="svg4221"
   viewBox="0 0 300 37"
   height="37"
   width="300"
   version="1.1">
  <defs
     id="defs3" />
  <sodipodi:namedview
     inkscape:window-maximized="0"
     inkscape:window-y="27"
     inkscape:window-x="54"
     inkscape:window-height="1053"
     inkscape:window-width="1866"
     inkscape:guide-bbox="true"
     showguides="true"
     units="px"
     showgrid="false"
     inkscape:document-rotation="0"
     inkscape:current-layer="layer1"
     inkscape:document-units="px"
     inkscape:cy="18.5"
     inkscape:cx="160"
     inkscape:zoom="1.4"
     inkscape:pageshadow="2"
     inkscape:pageopacity="0.0"
     borderopacity="1.0"
     bordercolor="#666666"
     pagecolor="#ffffff"
     id="base"
     inkscape:lockguides="true" />
  <metadata
     id="metadata4">
    <rdf:RDF>
      <cc:Work
         rdf:about="">
        <dc:format>image/svg+xml</dc:format>
        <dc:type
           rdf:resource="http://purl.org/dc/dcmitype/StillImage" />
        <dc:title />
      </cc:Work>
    </rdf:RDF>
  </metadata>
  <g
     id="layer1"
     inkscape:groupmode="layer"
     inkscape:label="Layer 1">
    <path
       sodipodi:end="5.4977871"
       sodipodi:start="0"
       d="M 77.734983,18.135038 A 24.909876,17.692751 0 0 1 57.684784,35.487828 24.909876,17.692751 0 0 1 29.811383,24.905761 24.909876,17.692751 0 0 1 38.985921,3.4240539 24.909876,17.692751 0 0 1 70.439049,5.6243737 L 52.825108,18.135038 Z"
       sodipodi:ry="17.692751"
       sodipodi:rx="24.909876"
       sodipodi:cy="18.135038"
       sodipodi:cx="52.825108"
       id="path1225"
       style="font-size:12px;fill:#ff0000;fill-opacity:0.75;fill-rule:evenodd;stroke:#000000;stroke-width:0.70293pt"
       sodipodi:type="arc"
       sodipodi:arc-type="slice" />
    <path
       sodipodi:end="2.4413969"
       sodipodi:start="0"
       d="M 141.49374,18.135038 A 24.909876,17.692751 0 0 1 125.12769,34.754532 24.909876,17.692751 0 0 1 97.53488,29.53567 l 19.04898,-11.400632 z"
       sodipodi:ry="17.692751"
       sodipodi:rx="24.909876"
       sodipodi:cy="18.135038"
       sodipodi:cx="116.58386"
       id="path1226"
       style="font-size:12px;fill:#ff0000;fill-opacity:0.75;fill-rule:evenodd;stroke:#000000;stroke-width:0.70293pt"
       sodipodi:type="arc"
       sodipodi:arc-type="slice" />
    <path
       sodipodi:end="4.9855409"
       sodipodi:start="0"
       sodipodi:open="true"
       d="M 209.7698,18.135038 A 24.909876,17.692751 0 0 1 192.79996,34.904911 24.909876,17.692751 0 0 1 165.01183,28.825854 24.909876,17.692751 0 0 1 164.2667,8.1805752 24.909876,17.692751 0 0 1 191.57981,1.0982392"
       sodipodi:ry="17.692751"
       sodipodi:rx="24.909876"
       sodipodi:cy="18.135038"
       sodipodi:cx="184.85992"
       id="path1227"
       style="font-size:12px;fill:#ff0000;fill-opacity:0.75;fill-rule:evenodd;stroke:#000000;stroke-width:0.70293pt"
       sodipodi:type="arc"
       sodipodi:arc-type="arc" />
    <path
       sodipodi:open="true"
       sodipodi:end="2.6599349"
       sodipodi:start="0"
       d="m 272.0987,18.135038 a 24.909876,17.692751 0 0 1 -18.96868,17.182149 24.909876,17.692751 0 0 1 -28.01703,-8.986"
       sodipodi:ry="17.692751"
       sodipodi:rx="24.909876"
       sodipodi:cy="18.135038"
       sodipodi:cx="247.18883"
       id="path1228"
       style="font-size:12px;fill:#ff0000;fill-opacity:0.75;fill-rule:evenodd;stroke:#000000;stroke-width:0.70293pt"
       sodipodi:type="arc"
       sodipodi:arc-type="arc" />
    <path
       sodipodi:end="4.3580459"
       sodipodi:start="3.9052122"
       d="m 98.59052,5.8997845 a 24.909876,17.692751 0 0 1 9.35025,-4.3583283 l 8.64309,16.5935818 z"
       sodipodi:ry="17.692751"
       sodipodi:rx="24.909876"
       sodipodi:cy="18.135038"
       sodipodi:cx="116.58386"
       id="path3204"
       style="font-size:12px;fill:#ff0000;fill-opacity:0.75;fill-rule:evenodd;stroke:#000000;stroke-width:0.70293pt"
       sodipodi:type="arc"
       sodipodi:arc-type="slice" />
    <path
       sodipodi:end="5.9880333"
       sodipodi:start="3.5874838"
       sodipodi:open="true"
       d="M 224.71447,10.504826 A 24.909876,17.692751 0 0 1 249.0645,0.49251613 24.909876,17.692751 0 0 1 271.02155,12.988477"
       sodipodi:ry="17.692751"
       sodipodi:rx="24.909876"
       sodipodi:cy="18.135038"
       sodipodi:cx="247.18883"
       id="path3205"
       style="font-size:12px;fill:#ff0000;fill-opacity:0.75;fill-rule:evenodd;stroke:#000000;stroke-width:0.70293pt"
       sodipodi:type="arc"
       sodipodi:arc-type="arc" />
    <path
       sodipodi:end="5.9203236"
       sodipodi:start="4.6447262"
       d="M 114.89968,0.48277293 A 24.909876,17.692751 0 0 1 139.87173,11.854978 l -23.28787,6.28006 z"
       sodipodi:ry="17.692751"
       sodipodi:rx="24.909876"
       sodipodi:cy="18.135038"
       sodipodi:cx="116.58386"
       id="path3206"
       style="font-size:12px;fill:#ff0000;fill-opacity:0.75;fill-rule:evenodd;stroke:#000000;stroke-width:0.70293pt"
       sodipodi:type="arc"
       sodipodi:arc-type="slice" />
  </g>
</svg>
