<?xml version="1.0" encoding="UTF-8" standalone="no"?>
<svg
   xmlns:dc="http://purl.org/dc/elements/1.1/"
   xmlns:cc="http://creativecommons.org/ns#"
   xmlns:rdf="http://www.w3.org/1999/02/22-rdf-syntax-ns#"
   xmlns:svg="http://www.w3.org/2000/svg"
   xmlns="http://www.w3.org/2000/svg"
   xmlns:sodipodi="http://sodipodi.sourceforge.net/DTD/sodipodi-0.dtd"
   xmlns:inkscape="http://www.inkscape.org/namespaces/inkscape"
   version="1.1"
   inkscape:output_extension="org.inkscape.output.svg.inkscape"
   width="300"
   height="66"
   viewBox="0 0 300 66"
   id="svg4398"
   sodipodi:version="0.32"
   inkscape:version="1.0beta1 (c8cd966, 2019-11-15)"
   sodipodi:docname="shapes-f13.svg">
  <defs
     id="defs3" />
  <sodipodi:namedview
     inkscape:lockguides="true"
     id="base"
     pagecolor="#ffffff"
     bordercolor="#666666"
     borderopacity="1.0"
     inkscape:pageopacity="0.0"
     inkscape:pageshadow="2"
     inkscape:zoom="3.959798"
     inkscape:cx="158.65402"
     inkscape:cy="7.5883971"
     inkscape:document-units="px"
     inkscape:current-layer="layer1"
     inkscape:document-rotation="0"
     showgrid="false"
     units="px"
     showguides="true"
     inkscape:guide-bbox="true"
     inkscape:window-width="1866"
     inkscape:window-height="1016"
     inkscape:window-x="54"
     inkscape:window-y="27"
     inkscape:window-maximized="1" />
  <metadata
     id="metadata4">
    <rdf:RDF>
      <cc:Work
         rdf:about="">
        <dc:format>image/svg+xml</dc:format>
        <dc:type
           rdf:resource="http://purl.org/dc/dcmitype/StillImage" />
        <dc:title />
      </cc:Work>
    </rdf:RDF>
  </metadata>
  <g
     inkscape:label="Layer 1"
     inkscape:groupmode="layer"
     id="layer1">
    <g
       id="g2711"
       transform="translate(10.257691)">
      <path
         transform="matrix(0.672634,0.355353,-0.355353,0.672634,1407.527,-2577.172)"
         d="m 107.30297,3871.6492 -25.240713,0.151 -14.184943,20.8783 -7.943433,-23.9586 -24.239841,-7.039 20.331401,-14.9583 -0.796102,-25.2286 20.508929,14.714 23.747823,-8.5532 -7.656185,24.052 z"
         inkscape:randomized="0"
         inkscape:rounded="0"
         inkscape:flatsided="false"
         sodipodi:arg2="1.0807934"
         sodipodi:arg1="0.45247489"
         sodipodi:r2="19.005026"
         sodipodi:r1="38.010052"
         sodipodi:cy="3855.0315"
         sodipodi:cx="73.11795"
         sodipodi:sides="5"
         id="path2190"
         style="color:#000000;fill:#fff100;fill-opacity:1;fill-rule:evenodd;stroke:#000000;stroke-width:0.985894;stroke-linecap:butt;stroke-linejoin:miter;stroke-miterlimit:4;stroke-dashoffset:0;stroke-opacity:1;marker:none;marker-start:none;marker-mid:none;marker-end:none"
         sodipodi:type="star" />
      <text
  
         id="text293"
         y="6"
         x="86.568001"
         style="font-style:normal;font-variant:normal;font-weight:normal;font-stretch:normal;font-size:6px;line-height:1.25;font-family:'Liberation Sans',Arial,sans-serif;-inkscape-font-specification:'sans-serif Normal';font-variant-ligatures:normal;font-variant-caps:normal;font-variant-numeric:normal;font-variant-east-asian:normal;text-align:center;text-anchor:middle;fill:#000000;fill-opacity:1;stroke:none;stroke-width:1px;stroke-linecap:butt;stroke-linejoin:miter;stroke-opacity:1"
         xml:space="preserve"><tspan
           y="6"
           x="86.568001"
           id="tspan295"
           style="text-align:center;text-anchor:middle"
           sodipodi:role="line">Star</tspan></text>
    </g>
    <g
       id="g2718"
       transform="translate(10.257691)">
      <path
         transform="matrix(0.672634,0.355353,-0.355353,0.672634,1513.826,-2577.172)"
         d="m 107.30297,3871.6492 -39.425656,21.0293 -32.183274,-30.9976 19.535299,-40.1869 44.256752,6.1608 z"
         inkscape:randomized="0"
         inkscape:rounded="0"
         inkscape:flatsided="true"
         sodipodi:arg2="1.0807934"
         sodipodi:arg1="0.45247489"
         sodipodi:r2="19.005026"
         sodipodi:r1="38.010052"
         sodipodi:cy="3855.0315"
         sodipodi:cx="73.11795"
         sodipodi:sides="5"
         id="path2191"
         style="color:#000000;fill:#fff100;fill-opacity:1;fill-rule:evenodd;stroke:#000000;stroke-width:0.985894;stroke-linecap:butt;stroke-linejoin:miter;stroke-miterlimit:4;stroke-dashoffset:0;stroke-opacity:1;marker:none;marker-start:none;marker-mid:none;marker-end:none"
         sodipodi:type="star" />
      <text
  
         id="text299"
         y="6"
         x="193.02451"
         style="font-style:normal;font-variant:normal;font-weight:normal;font-stretch:normal;font-size:6px;line-height:1.25;font-family:'Liberation Sans',Arial,sans-serif;-inkscape-font-specification:'sans-serif Normal';font-variant-ligatures:normal;font-variant-caps:normal;font-variant-numeric:normal;font-variant-east-asian:normal;text-align:center;text-anchor:middle;fill:#000000;fill-opacity:1;stroke:none;stroke-width:1px;stroke-linecap:butt;stroke-linejoin:miter;stroke-opacity:1"
         xml:space="preserve"><tspan
           y="6"
           x="193.02451"
           id="tspan301"
           style="text-align:center;text-anchor:middle"
           sodipodi:role="line">Polygon</tspan></text>
    </g>
  </g>
</svg>
