<?xml version="1.0" encoding="UTF-8" standalone="no"?>
<svg
   xmlns:dc="http://purl.org/dc/elements/1.1/"
   xmlns:cc="http://creativecommons.org/ns#"
   xmlns:rdf="http://www.w3.org/1999/02/22-rdf-syntax-ns#"
   xmlns:svg="http://www.w3.org/2000/svg"
   xmlns="http://www.w3.org/2000/svg"
   xmlns:sodipodi="http://sodipodi.sourceforge.net/DTD/sodipodi-0.dtd"
   xmlns:inkscape="http://www.inkscape.org/namespaces/inkscape"
   width="300"
   height="149"
   id="svg5729"
   viewBox="0 0 300 149"
   sodipodi:version="0.32"
   inkscape:version="1.0beta1 (a4ee55bc41, 2019-11-15)"
   sodipodi:docname="shapes-f16.svg"
   version="1.1">
  <defs
     id="defs3" />
  <sodipodi:namedview
     inkscape:window-maximized="0"
     inkscape:window-y="27"
     inkscape:window-x="54"
     inkscape:window-height="1053"
     inkscape:window-width="1866"
     inkscape:guide-bbox="true"
     showguides="true"
     units="px"
     showgrid="false"
     inkscape:document-rotation="0"
     inkscape:current-layer="layer1"
     inkscape:document-units="px"
     inkscape:cy="35.65129"
     inkscape:cx="192.25709"
     inkscape:zoom="1.979899"
     inkscape:pageshadow="2"
     inkscape:pageopacity="0.0"
     borderopacity="1.0"
     bordercolor="#666666"
     pagecolor="#ffffff"
     id="base"
     inkscape:lockguides="true" />
  <metadata
     id="metadata4">
    <rdf:RDF>
      <cc:Work
         rdf:about="">
        <dc:format>image/svg+xml</dc:format>
        <dc:type
           rdf:resource="http://purl.org/dc/dcmitype/StillImage" />
        <dc:title />
      </cc:Work>
    </rdf:RDF>
  </metadata>
  <g
     inkscape:label="Layer 1"
     inkscape:groupmode="layer"
     id="layer1">
    <path
       sodipodi:type="star"
       style="fill:none;fill-opacity:0.75;fill-rule:evenodd;stroke:#000000;stroke-width:3.37504;stroke-linecap:butt;stroke-linejoin:miter;stroke-miterlimit:4;stroke-opacity:0.131147"
       id="path1575"
       sodipodi:sides="5"
       sodipodi:cx="254.06618"
       sodipodi:cy="551.97913"
       sodipodi:r1="27.797562"
       sodipodi:r2="27.797562"
       sodipodi:arg1="0.22082877"
       sodipodi:arg2="0.8491473"
       inkscape:flatsided="false"
       inkscape:rounded="5.13"
       d="m 281.18871,558.06786 c -19.30441,85.99238 57.40384,-43.44307 -8.75881,14.77938 -66.16265,58.22245 71.97588,-1.40505 -15.77313,6.80847 -87.749,8.21352 59.05558,41.16965 -16.76264,-3.76304 -75.81823,-44.9327 23.57805,68.01894 -11.34941,-12.89721 -34.92745,-80.91614 -20.90549,68.88731 -1.60108,-17.10507 19.30442,-85.99238 -57.40384,43.44307 8.75881,-14.77938 66.16265,-58.22244 -71.97587,1.40505 15.77313,-6.80847 87.74901,-8.21352 -59.05557,-41.16965 16.76265,3.76305 75.81822,44.93269 -23.57805,-68.01895 11.3494,12.8972 34.92746,80.91614 20.90549,-68.88731 1.60108,17.10507 z"
       transform="matrix(0.307966,-0.03233534,-0.03233534,-0.307966,-41.542087,272.34953)"
       inkscape:randomized="0" />
    <path
       sodipodi:type="star"
       style="color:#000000;font-style:normal;font-variant:normal;font-weight:100;font-stretch:ultra-condensed;font-size:12px;font-family:'Liberation Sans',Arial,sans-serif;letter-spacing:0;writing-mode:lr-tb;text-anchor:start;fill:none;fill-opacity:0.75;fill-rule:evenodd;stroke:#000000;stroke-width:0.039131;stroke-linecap:butt;stroke-linejoin:miter;stroke-miterlimit:4;stroke-dashoffset:0;stroke-opacity:1;marker:none;marker-start:none;marker-mid:none;marker-end:none"
       id="path1556"
       sodipodi:sides="18"
       sodipodi:cx="195.99266"
       sodipodi:cy="-74.406525"
       sodipodi:r1="70.856926"
       sodipodi:r2="3.0882297"
       sodipodi:arg1="1.170892"
       sodipodi:arg2="-2.686023"
       inkscape:flatsided="false"
       inkscape:rounded="0.37"
       d="m 223.5794,-9.1403344 c 7.52778,-26.0230706 -3.95523,-72.6793206 -30.36,-66.6249306 -26.1123,5.987329 -9.42331,93.760813 6.37397,72.1241194 15.97421,-21.8790344 21.14109,-69.6489904 -5.74201,-72.9906894 -26.58532,-3.304684 -40.9231,84.883383 -18.67833,69.954529 22.49392,-15.096064 43.68749,-58.217964 19.56857,-70.552693 -23.85177,-12.198105 -67.48696,65.767764 -41.47775,59.347389 26.30053,-6.492286 60.96453,-39.764992 42.51888,-59.605001 -18.24133,-19.620253 -85.9109,38.719583 -59.27433,41.582079 26.93491,2.894558 70.88834,-16.515775 60.34079,-41.468066 -10.43073,-24.675912 -93.97272,7.001248 -69.92157,18.801356 24.32054,11.932276 72.26198,8.725489 70.88471,-18.329471 -1.36201,-26.755287 -90.70003,-25.561537 -72.13522,-6.247087 18.77275,19.530785 64.91975,32.914329 72.87889,7.01993 7.87097,-25.60758 -76.4876,-55.04123 -65.64831,-30.54204 10.96069,24.773592 49.74725,53.133215 66.08279,31.522622 16.15461,-21.371225 -53.04961,-77.882132 -51.24323,-51.153172 1.82661,27.02834 28.57449,66.943452 51.31614,52.223222 22.48975,-14.557182 -23.21307,-91.329302 -30.65747,-65.594472 -7.52778,26.02307 3.95523,72.679316 30.36,66.624926 26.11231,-5.987329 9.42331,-93.760816 -6.37397,-72.124116 -15.97421,21.87903 -21.14109,69.648987 5.74201,72.990686 26.58532,3.304684 40.9231,-84.883386 18.67833,-69.954526 -22.49392,15.09606 -43.68749,58.217961 -19.56857,70.55269 23.85177,12.198104 67.48696,-65.76776 41.47775,-59.34739 -26.30053,6.49229 -60.96452,39.764992 -42.51888,59.605002 18.24133,19.620253 85.9109,-38.719582 59.27433,-41.582082 -26.9349,-2.89456 -70.88834,16.515777 -60.34079,41.468069 10.43073,24.675909 93.97272,-7.001248 69.92157,-18.801357 -24.32054,-11.932272 -72.26198,-8.725488 -70.88471,18.329471 1.36201,26.755287 90.70004,25.561541 72.13522,6.247088 -18.77275,-19.530785 -64.91975,-32.914329 -72.87888,-7.01993 -7.87098,25.607582 76.48759,55.04123 65.6483,30.54204 -10.96069,-24.773592 -49.74725,-53.133215 -66.08279,-31.522622 -16.15461,21.371224 53.04961,77.8821347 51.24323,51.153172 -1.82661,-27.02834 -28.57449,-66.943452 -51.31614,-52.223222 -22.48975,14.557182 23.21307,91.329305 30.65747,65.5944766 z"
       transform="scale(1,-1)"
       inkscape:randomized="0" />
    <path
       sodipodi:type="star"
       style="color:#000000;font-style:normal;font-variant:normal;font-weight:100;font-stretch:ultra-condensed;font-size:12px;font-family:'Liberation Sans',Arial,sans-serif;letter-spacing:0;writing-mode:lr-tb;text-anchor:start;fill:#cecece;fill-opacity:0.75;fill-rule:evenodd;stroke:#000000;stroke-width:0.19942;stroke-linecap:butt;stroke-linejoin:miter;stroke-miterlimit:4;stroke-dashoffset:0;stroke-opacity:1;marker:none;marker-start:none;marker-mid:none;marker-end:none"
       id="path1559"
       sodipodi:sides="4"
       sodipodi:cx="60.333402"
       sodipodi:cy="-103.50011"
       sodipodi:r1="18.592299"
       sodipodi:r2="0.51542962"
       sodipodi:arg1="0"
       sodipodi:arg2="0.78539816"
       inkscape:flatsided="false"
       inkscape:rounded="1.85"
       d="m 78.925699,-103.50011 c 0,33.728238 5.621629,-23.485 -18.227834,0.36447 -23.849464,23.84946 33.36377,18.227832 -0.364464,18.227832 -33.728235,0 23.484999,5.621628 -0.364464,-18.227832 -23.849463,-23.84947 -18.227835,33.363768 -18.227835,-0.36447 0,-33.72823 -5.621628,23.485003 18.227835,-0.36446 23.849463,-23.84946 -33.363771,-18.22784 0.364464,-18.22784 33.728234,0 -23.485,-5.62162 0.364464,18.22784 23.849463,23.849463 18.227834,-33.36377 18.227834,0.36446 z"
       transform="scale(1,-1)"
       inkscape:randomized="0" />
    <path
       sodipodi:type="star"
       style="fill:#8eff00;fill-opacity:0.75;fill-rule:evenodd;stroke:#000000;stroke-width:0.74894pt;stroke-linecap:butt;stroke-linejoin:miter;stroke-opacity:1"
       id="path2808"
       sodipodi:sides="4"
       sodipodi:cx="267.07463"
       sodipodi:cy="-76.006439"
       sodipodi:r1="28.607233"
       sodipodi:r2="5.9118586"
       sodipodi:arg1="0"
       sodipodi:arg2="0.78539816"
       inkscape:flatsided="false"
       inkscape:rounded="0.25"
       d="m 295.68185,-76.006439 c 0,6.195509 -20.04603,-0.200572 -24.42692,4.180315 -4.38089,4.380887 2.01519,24.426918 -4.18031,24.426918 -6.19551,0 0.20057,-20.046031 -4.18032,-24.426918 -4.38089,-4.380886 -24.42692,2.015194 -24.42692,-4.180315 0,-6.195509 20.04603,0.200571 24.42692,-4.180315 4.38089,-4.380887 -2.01519,-24.426916 4.18032,-24.426916 6.1955,0 -0.20058,20.046029 4.18031,24.426916 4.38089,4.380886 24.42692,-2.015194 24.42692,4.180315 z"
       transform="scale(1,-1)"
       inkscape:randomized="0" />
    <path
       sodipodi:type="star"
       style="fill:#8eff00;fill-opacity:0.75;fill-rule:evenodd;stroke:#000000;stroke-width:1pt;stroke-linecap:butt;stroke-linejoin:miter;stroke-opacity:1"
       id="path3430"
       sodipodi:sides="5"
       sodipodi:cx="285.61685"
       sodipodi:cy="626.70453"
       sodipodi:r1="38.196964"
       sodipodi:r2="9.5492411"
       sodipodi:arg1="0"
       sodipodi:arg2="0.62831853"
       inkscape:flatsided="false"
       inkscape:rounded="0.24"
       d="m 323.81382,626.70453 c 0,7.43618 -26.10059,-0.4031 -30.47147,5.6129 -4.37088,6.016 11.15025,28.41666 4.07801,30.71457 -7.07223,2.29791 -7.68215,-24.9477 -14.75439,-27.2456 -7.07223,-2.29791 -23.58023,19.38574 -27.95111,13.36974 -4.37088,-6.016 21.35275,-15.01543 21.35275,-22.45161 0,-7.43619 -25.72363,-16.43561 -21.35275,-22.45161 4.37088,-6.016 20.87888,15.66765 27.95111,13.36974 7.07224,-2.29791 7.68216,-29.54351 14.75439,-27.2456 7.07224,2.2979 -8.44889,24.69857 -4.07801,30.71457 4.37088,6.016 30.47147,-1.82329 30.47147,5.6129 z"
       transform="matrix(0.716804,0.217032,0.217032,-0.716804,-73.514217,504.59853)"
       inkscape:randomized="0" />
    <path
       sodipodi:type="star"
       style="fill:#000000;fill-opacity:1;fill-rule:evenodd;stroke:#000000;stroke-width:1.42746;stroke-miterlimit:4;stroke-dasharray:1.42746, 1.42746;stroke-dashoffset:0;stroke-opacity:1"
       id="path1586"
       sodipodi:sides="3"
       sodipodi:cx="346.60431"
       sodipodi:cy="649.26288"
       sodipodi:r1="38.821625"
       sodipodi:r2="36.683537"
       sodipodi:arg1="0.59891126"
       sodipodi:arg2="1.6461088"
       inkscape:flatsided="true"
       inkscape:rounded="0.21"
       d="m 378.66903,671.14832 c -7.96041,11.66292 -60.93024,7.66607 -67.05043,-5.0593 -6.12018,-12.72538 23.82611,-56.60017 37.9067,-55.53772 14.08059,1.06245 37.10413,48.9341 29.14373,60.59702 z"
       transform="matrix(0.112357,0.00684909,0.00684909,-0.112357,0.39089963,207.16453)"
       inkscape:randomized="0" />
    <path
       sodipodi:type="star"
       style="fill:#000000;fill-opacity:1;fill-rule:evenodd;stroke:#000000;stroke-width:1.42752;stroke-miterlimit:4;stroke-dasharray:1.42751, 1.42751;stroke-dashoffset:0;stroke-opacity:1"
       id="path2214"
       sodipodi:sides="4"
       sodipodi:cx="346.60431"
       sodipodi:cy="649.26288"
       sodipodi:r1="38.821625"
       sodipodi:r2="36.683537"
       sodipodi:arg1="0.59891126"
       sodipodi:arg2="1.3843094"
       inkscape:flatsided="true"
       inkscape:rounded="0.21"
       d="m 378.66903,671.14832 c -6.49965,9.52273 -44.42743,16.67892 -53.95016,10.17927 -9.52274,-6.49964 -16.67892,-44.42742 -10.17928,-53.95015 6.49965,-9.52274 44.42743,-16.67892 53.95016,-10.17928 9.52273,6.49965 16.67892,44.42742 10.17928,53.95016 z"
       transform="matrix(0.111212,-0.01740816,-0.01740816,-0.111212,26.821123,215.83353)"
       inkscape:randomized="0" />
    <path
       sodipodi:type="star"
       style="fill:#000000;fill-opacity:1;fill-rule:evenodd;stroke:#000000;stroke-width:1.4275;stroke-miterlimit:4;stroke-dasharray:1.4275, 1.4275;stroke-dashoffset:0;stroke-opacity:1"
       id="path2215"
       sodipodi:sides="5"
       sodipodi:cx="346.60431"
       sodipodi:cy="649.26288"
       sodipodi:r1="38.821625"
       sodipodi:r2="36.683537"
       sodipodi:arg1="0.59891126"
       sodipodi:arg2="1.2272298"
       inkscape:flatsided="true"
       inkscape:rounded="0.21"
       d="m 378.66903,671.14832 c -5.40286,7.91581 -33.77251,18.06519 -42.97047,15.37289 -9.19796,-2.6923 -27.6173,-26.53711 -27.89909,-36.11686 -0.2818,-9.57974 16.70408,-34.46603 25.72788,-37.69433 9.0238,-3.22831 37.94098,5.23593 43.79979,12.82047 5.85881,7.58454 6.74474,37.70202 1.34189,45.61783 z"
       transform="matrix(0.10622,-0.03726607,-0.03726607,-0.10622,52.383013,219.41953)"
       inkscape:randomized="0" />
    <path
       sodipodi:type="star"
       style="fill:#000000;fill-opacity:1;fill-rule:evenodd;stroke:#000000;stroke-width:1.42746;stroke-miterlimit:4;stroke-dasharray:1.42746, 1.42746;stroke-dashoffset:0;stroke-opacity:1"
       id="path2216"
       sodipodi:sides="6"
       sodipodi:cx="346.60431"
       sodipodi:cy="649.26288"
       sodipodi:r1="38.821625"
       sodipodi:r2="36.683537"
       sodipodi:arg1="0.59891126"
       sodipodi:arg2="1.12251"
       inkscape:flatsided="true"
       inkscape:rounded="0.21"
       d="m 378.66903,671.14832 c -4.59595,6.73359 -26.85628,17.43955 -34.98571,16.82614 -8.12943,-0.61341 -28.53123,-14.53845 -32.06472,-21.88544 -3.53349,-7.347 -1.67495,-31.97799 2.92099,-38.71158 4.59595,-6.73359 26.85628,-17.43955 34.98571,-16.82614 8.12943,0.61341 28.53123,14.53844 32.06472,21.88544 3.53348,7.347 1.67495,31.97799 -2.92099,38.71158 z"
       transform="matrix(0.112523,0.00315394,0.00315394,-0.112523,34.947883,209.56053)"
       inkscape:randomized="0" />
    <path
       sodipodi:type="star"
       style="color:#000000;font-style:normal;font-variant:normal;font-weight:100;font-stretch:ultra-condensed;font-size:12px;font-family:'Liberation Sans',Arial,sans-serif;letter-spacing:0;writing-mode:lr-tb;text-anchor:start;fill:#ff6000;fill-opacity:0.749981;fill-rule:evenodd;stroke:#000000;stroke-width:0.253817;stroke-linecap:butt;stroke-linejoin:miter;stroke-miterlimit:4;stroke-dashoffset:0;stroke-opacity:1;marker:none;marker-start:none;marker-mid:none;marker-end:none"
       id="path905"
       sodipodi:sides="3"
       sodipodi:cx="121.65579"
       sodipodi:cy="-65.393715"
       sodipodi:r1="16.120514"
       sodipodi:r2="5.2497473"
       sodipodi:arg1="0.54565505"
       sodipodi:arg2="0.65224913"
       inkscape:flatsided="false"
       inkscape:rounded="-3"
       d="m 135.43541,-57.027521 c -12.60277,-30.222151 -42.344129,-5.90328 -9.60754,-5.179727 56.5888,1.250742 -74.443015,-2.690633 -18.30722,4.563932 32.47453,4.196762 26.28445,-33.719448 9.28954,-5.730503 -29.377572,48.381963 39.55167,-63.124231 5.20113,-18.136489 -19.87177,26.025389 16.05967,39.622728 0.31799,10.91023 -27.211221,-49.632702 34.89136,65.8148628 13.1061,13.572557 z"
       transform="scale(1,-1)"
       inkscape:randomized="0" />
    <path
       sodipodi:type="star"
       style="fill:#fcfcfc;fill-opacity:0.75;fill-rule:evenodd;stroke:#acacac;stroke-width:1pt;stroke-linecap:butt;stroke-linejoin:miter;stroke-opacity:1"
       id="path4053"
       sodipodi:sides="6"
       sodipodi:cx="272.33234"
       sodipodi:cy="606.22424"
       sodipodi:r1="27.681587"
       sodipodi:r2="11.966143"
       sodipodi:arg1="0.20131714"
       sodipodi:arg2="-3.0483195"
       inkscape:flatsided="false"
       inkscape:rounded="3"
       d="m 299.45487,611.75945 c -49.5405,-107.97432 39.72805,-95.58135 -39.03666,-6.64971 -68.23666,77.04463 -38.86863,111.31058 20.68176,27.37091 68.73826,-96.89049 102.6399,-13.38517 -13.75951,-37.1316 -100.84094,-20.57236 -115.8321,21.99407 -13.36302,31.59639 118.27875,11.08383 62.91185,82.19617 25.27715,-30.48188 -32.60428,-97.617 -76.96347,-89.31651 -34.04478,4.22547 49.54049,107.97433 -39.72806,95.58135 39.03665,6.64972 68.23667,-77.04463 38.86864,-111.31058 -20.68176,-27.37091 -68.73825,96.89049 -102.6399,13.38517 13.75951,37.13159 100.84094,20.57237 115.83211,-21.99406 13.36303,-31.59638 -118.27876,-11.08384 -62.91186,-82.19618 -25.27715,30.48188 32.60427,97.617 76.96347,89.31651 34.04478,-4.22548 z"
       transform="matrix(0.47781,0.07371536,0.07371536,-0.47781,-122.41049,309.10953)"
       inkscape:randomized="0" />
    <path
       sodipodi:type="star"
       style="color:#000000;fill:#000000;fill-opacity:1;fill-rule:evenodd;stroke:none;stroke-width:0.0828404pt;stroke-linecap:butt;stroke-linejoin:miter;stroke-miterlimit:4;stroke-dashoffset:0;stroke-opacity:0.236923;marker:none;marker-start:none;marker-mid:none;marker-end:none"
       id="path1545"
       sodipodi:sides="3"
       sodipodi:cx="397.5007"
       sodipodi:cy="420.22922"
       sodipodi:r1="39.614254"
       sodipodi:r2="1.077998"
       sodipodi:arg1="2.3198469"
       sodipodi:arg2="3.3670445"
       inkscape:flatsided="false"
       inkscape:rounded="-3"
       d="m 370.52562,449.24015 c 85.87311,79.84694 52.13728,-143.54368 25.92436,-29.25192 -26.21291,114.29177 101.50009,-72.07041 -10.58594,-37.62558 -112.08603,34.44482 98.24383,116.92404 12.37072,37.07711 -85.87311,-79.84693 11.66476,123.93686 37.87769,9.6451 26.21292,-114.29177 -150.38112,26.61963 -38.29509,-7.8252 112.08603,-34.44483 -113.16484,-51.86645 -27.29174,27.98049 z"
       transform="matrix(0.270281,-0.08043548,-0.08043548,-0.270281,31.540913,168.47153)"
       inkscape:randomized="0" />
    <path
       sodipodi:type="star"
       style="color:#000000;font-style:normal;font-variant:normal;font-weight:100;font-stretch:ultra-condensed;font-size:12px;font-family:'Liberation Sans',Arial,sans-serif;letter-spacing:0;writing-mode:lr-tb;text-anchor:start;fill:#8eff00;fill-opacity:0.75;fill-rule:evenodd;stroke:#000000;stroke-width:0.936167;stroke-linecap:butt;stroke-linejoin:miter;stroke-miterlimit:4;stroke-dashoffset:0;stroke-opacity:1;marker:none;marker-start:none;marker-mid:none;marker-end:none"
       id="path1591"
       sodipodi:sides="3"
       sodipodi:cx="267.24162"
       sodipodi:cy="39.562832"
       sodipodi:r1="29.052359"
       sodipodi:r2="4.06709"
       sodipodi:arg1="0.51914611"
       sodipodi:arg2="1.5663437"
       inkscape:flatsided="false"
       inkscape:rounded="0.25"
       d="m 292.46612,53.976838 c -3.37963,5.914348 -18.39461,-10.377287 -25.2064,-10.346956 -6.81179,0.03033 -21.6811,16.455031 -25.11326,10.571014 -3.43217,-5.884017 18.1843,-10.741558 21.56392,-16.655906 3.37963,-5.914348 -3.40992,-27.003898 3.40187,-27.034229 6.81179,-0.03033 0.21031,21.118846 3.64247,27.002863 3.43216,5.884017 25.09103,10.548867 21.7114,16.463214 z"
       inkscape:randomized="0" />
    <text
       xml:space="preserve"
       style="font-style:normal;font-variant:normal;font-weight:normal;font-stretch:normal;line-height:0%;font-family:'Liberation Sans',Arial,sans-serif;writing-mode:lr-tb;text-anchor:start;fill:#000000;fill-opacity:1;stroke:none;stroke-width:1pt;stroke-linecap:butt;stroke-linejoin:miter;stroke-opacity:1"
       x="262.21893"
       y="77.307915"
       id="text2547"><tspan
         sodipodi:role="line"
         id="tspan2552"
         x="262.21893"
         y="77.307915"
         style="font-size:3.979px;line-height:1.2">0.25</tspan></text>
    <text
       xml:space="preserve"
       style="font-style:normal;font-variant:normal;font-weight:normal;font-stretch:normal;line-height:0%;font-family:'Liberation Sans',Arial,sans-serif;writing-mode:lr-tb;text-anchor:start;fill:#000000;fill-opacity:1;stroke:none;stroke-width:1pt;stroke-linecap:butt;stroke-linejoin:miter;stroke-opacity:1"
       x="262.72223"
       y="42.471912"
       id="text2856"><tspan
         sodipodi:role="line"
         id="tspan2559"
         x="262.72223"
         y="42.471912"
         style="font-size:3.979px;line-height:1.2">0.25</tspan></text>
    <text
       xml:space="preserve"
       style="font-style:normal;font-variant:normal;font-weight:normal;font-stretch:normal;line-height:0%;font-family:'Liberation Sans',Arial,sans-serif;writing-mode:lr-tb;text-anchor:start;fill:#000000;fill-opacity:1;stroke:none;stroke-width:1pt;stroke-linecap:butt;stroke-linejoin:miter;stroke-opacity:1"
       x="262.64645"
       y="118.84592"
       id="text2561"><tspan
         sodipodi:role="line"
         id="tspan2566"
         x="262.64645"
         y="118.84592"
         style="font-size:3.979px;line-height:1.2">0.25</tspan></text>
    <text
       xml:space="preserve"
       style="font-style:normal;font-variant:normal;font-weight:normal;font-stretch:normal;line-height:0%;font-family:'Liberation Sans',Arial,sans-serif;writing-mode:lr-tb;text-anchor:start;fill:#000000;fill-opacity:1;stroke:none;stroke-width:1pt;stroke-linecap:butt;stroke-linejoin:miter;stroke-opacity:1"
       x="211.18098"
       y="-95.401672"
       id="text2568"
       transform="rotate(59.999811)"><tspan
         sodipodi:role="line"
         id="tspan2573"
         x="211.18098"
         y="-95.401672"
         style="font-size:3.97901px;line-height:1.2">0.37</tspan></text>
    <path
       sodipodi:type="star"
       style="fill:#cecece;fill-opacity:0.75;fill-rule:evenodd;stroke:#000000;stroke-width:0.375;stroke-linecap:butt;stroke-linejoin:miter;stroke-miterlimit:4;stroke-opacity:1"
       id="path1554"
       sodipodi:sides="9"
       sodipodi:cx="451.8996"
       sodipodi:cy="620.88135"
       sodipodi:r1="23.08659"
       sodipodi:r2="14.29816"
       sodipodi:arg1="1.1382904"
       sodipodi:arg2="1.4814137"
       inkscape:flatsided="false"
       inkscape:rounded="0.43"
       d="m 461.57628,641.84208 c -4.18812,1.96376 -3.79082,-7.10516 -8.40038,-6.71965 -4.6627,0.38996 -2.81474,9.23726 -7.33684,8.03582 -4.47056,-1.18774 1.66318,-7.87956 -2.11575,-10.54721 -3.82249,-2.6984 -8.09381,5.26688 -10.78567,1.43977 -2.66118,-3.78348 6.33896,-4.96702 5.15886,-9.43961 -1.19371,-4.52415 -9.5857,-1.16794 -9.18777,-5.82997 0.39339,-4.60889 8.04866,0.26964 10.01958,-3.91511 1.99363,-4.233 -6.59234,-7.05627 -3.29081,-10.3718 3.26389,-3.27775 5.99231,5.38014 10.19202,3.44131 4.24814,-1.96118 -0.51434,-9.64288 4.14596,-10.06055 4.60719,-0.41291 1.1321,7.97321 5.59552,9.18751 4.51488,1.22829 5.80432,-7.71749 9.64279,-5.04186 3.79472,2.64513 -4.25785,6.83553 -1.61921,10.63476 2.66907,3.84304 9.40707,-2.18099 10.62765,2.33598 1.20667,4.46549 -7.65549,2.49943 -8.07628,7.1059 -0.42563,4.65958 8.60815,4.37601 6.63972,8.62078 -1.94601,4.1964 -7.47105,-3.00618 -10.75437,0.25211 -3.32118,3.29585 3.78138,8.88543 -0.45502,10.87182 z"
       transform="matrix(0.964586,0.06719919,0.06719919,-0.964586,-364.06269,688.71953)"
       inkscape:randomized="0" />
    <text
       xml:space="preserve"
       style="font-style:normal;font-variant:normal;font-weight:normal;font-stretch:normal;line-height:0%;font-family:'Liberation Sans',Arial,sans-serif;writing-mode:lr-tb;text-anchor:start;fill:#000000;fill-opacity:1;stroke:none;stroke-width:1pt;stroke-linecap:butt;stroke-linejoin:miter;stroke-opacity:1"
       x="108.64069"
       y="121.71639"
       id="text2575"><tspan
         sodipodi:role="line"
         id="tspan2580"
         x="108.64069"
         y="121.71639"
         style="font-size:3.979px;line-height:1.2">0.43</tspan></text>
    <text
       xml:space="preserve"
       style="font-style:normal;font-variant:normal;font-weight:normal;font-stretch:normal;line-height:0%;font-family:'Liberation Sans',Arial,sans-serif;writing-mode:lr-tb;text-anchor:start;fill:#000000;fill-opacity:1;stroke:none;stroke-width:1pt;stroke-linecap:butt;stroke-linejoin:miter;stroke-opacity:1"
       x="29.70005"
       y="-27.342012"
       id="text2582"
       transform="rotate(67.3621)"><tspan
         sodipodi:role="line"
         id="tspan2587"
         x="29.70005"
         y="-27.342012"
         style="font-size:3.97899px;line-height:1.2">3.00</tspan></text>
    <text
       xml:space="preserve"
       style="font-style:normal;font-variant:normal;font-weight:normal;font-stretch:normal;font-size:3.97899px;line-height:0%;font-family:'Liberation Sans',Arial,sans-serif;writing-mode:lr-tb;text-anchor:start;fill:#000000;fill-opacity:1;stroke:none;stroke-width:1pt;stroke-linecap:butt;stroke-linejoin:miter;stroke-opacity:1"
       x="100.67562"
       y="39.04916"
       id="text2589"
       transform="rotate(-0.03423016)"><tspan
         id="tspan2594">3.00</tspan></text>
    <path
       sodipodi:type="star"
       style="color:#000000;fill:#000000;fill-opacity:1;fill-rule:evenodd;stroke:none;stroke-width:0.0828404pt;stroke-linecap:butt;stroke-linejoin:miter;stroke-miterlimit:4;stroke-dashoffset:0;stroke-opacity:0.236923;marker:none;marker-start:none;marker-mid:none;marker-end:none"
       id="path896"
       sodipodi:sides="3"
       sodipodi:cx="233.7354"
       sodipodi:cy="-21.396767"
       sodipodi:r1="14.528186"
       sodipodi:r2="7.2640929"
       sodipodi:arg1="0.52807445"
       sodipodi:arg2="1.575272"
       inkscape:flatsided="false"
       inkscape:rounded="0.41"
       d="m 246.28454,-14.076435 c -2.59924,4.4558288 -7.42318,-0.03322 -12.58165,-0.05631 -5.15848,-0.02309 -10.02241,4.4226041 -12.58166,-0.05631 -2.55924,-4.478917 3.74036,-6.412046 6.3396,-10.867875 2.59923,-4.455828 1.18111,-10.890962 6.33959,-10.867874 5.15848,0.02309 3.68282,6.44527 6.24206,10.924186 2.55924,4.478916 8.84129,6.468358 6.24206,10.924186 z"
       transform="scale(1,-1)"
       inkscape:randomized="0" />
    <text
       xml:space="preserve"
       style="font-style:normal;font-variant:normal;font-weight:normal;font-stretch:normal;line-height:0%;font-family:'Liberation Sans',Arial,sans-serif;writing-mode:lr-tb;text-anchor:start;fill:#ffffff;fill-opacity:1;stroke:none;stroke-width:1pt;stroke-linecap:butt;stroke-linejoin:miter;stroke-opacity:1"
       x="229.29175"
       y="22.675911"
       id="text2598"><tspan
         sodipodi:role="line"
         id="tspan2603"
         x="229.29175"
         y="22.675911"
         style="font-size:3.979px;line-height:1.2">0.41</tspan></text>
    <text
       xml:space="preserve"
       style="font-style:normal;font-variant:normal;font-weight:normal;font-stretch:normal;line-height:0%;font-family:'Liberation Sans',Arial,sans-serif;writing-mode:lr-tb;text-anchor:start;fill:#000000;fill-opacity:1;stroke:none;stroke-width:1pt;stroke-linecap:butt;stroke-linejoin:miter;stroke-opacity:1"
       x="14.426392"
       y="95.59182"
       id="text2909"><tspan
         sodipodi:role="line"
         id="tspan2606"
         x="14.426392"
         y="95.59182"
         style="font-size:3.979px;line-height:1.2">5.43</tspan></text>
    <text
       xml:space="preserve"
       style="font-style:normal;font-variant:normal;font-weight:normal;font-stretch:normal;line-height:0%;font-family:'Liberation Sans',Arial,sans-serif;writing-mode:lr-tb;text-anchor:start;fill:#000000;fill-opacity:1;stroke:none;stroke-width:1pt;stroke-linecap:butt;stroke-linejoin:miter;stroke-opacity:1"
       x="55.856052"
       y="104.94852"
       id="text2613"><tspan
         sodipodi:role="line"
         id="tspan2617"
         x="55.856052"
         y="104.94852"
         style="font-size:3.979px;line-height:1.2">1.85</tspan></text>
    <text
       xml:space="preserve"
       style="font-style:normal;font-variant:normal;font-weight:normal;font-stretch:normal;line-height:0%;font-family:'Liberation Sans',Arial,sans-serif;writing-mode:lr-tb;text-anchor:start;fill:#000000;fill-opacity:1;stroke:none;stroke-width:1pt;stroke-linecap:butt;stroke-linejoin:miter;stroke-opacity:1"
       x="55.227631"
       y="146.5439"
       id="text3240"><tspan
         sodipodi:role="line"
         id="tspan3245"
         x="55.227631"
         y="146.5439"
         style="font-size:3.979px;line-height:1.2">0.21</tspan></text>
    <text
       xml:space="preserve"
       style="font-style:normal;font-variant:normal;font-weight:normal;font-stretch:normal;font-size:3.97899px;line-height:0%;font-family:'Liberation Sans',Arial,sans-serif;writing-mode:lr-tb;text-anchor:start;fill:#000000;fill-opacity:1;stroke:none;stroke-width:1pt;stroke-linecap:butt;stroke-linejoin:miter;stroke-opacity:1"
       x="100.93247"
       y="69.464325"
       id="text3868"
       transform="rotate(-0.03423016)"><tspan
         id="tspan3873">3.00</tspan><tspan
         sodipodi:role="line"
         id="tspan3875"
         x="100.93247"
         y="71.851723"
         style="line-height:1.2"> </tspan></text>
    <path
       sodipodi:type="star"
       style="color:#000000;fill:#cecece;fill-opacity:0.75;fill-rule:evenodd;stroke:#000000;stroke-width:0.711016;stroke-linecap:butt;stroke-linejoin:miter;stroke-miterlimit:4;stroke-dashoffset:0;stroke-opacity:1;marker:none;marker-start:none;marker-mid:none;marker-end:none"
       id="path4498"
       sodipodi:sides="9"
       sodipodi:cx="105.38494"
       sodipodi:cy="5142.4639"
       sodipodi:r1="46.149918"
       sodipodi:r2="18.172943"
       sodipodi:arg1="0.932314"
       sodipodi:arg2="1.2813799"
       inkscape:flatsided="false"
       inkscape:rounded="-0.43"
       inkscape:randomized="0"
       d="m 132.88925,5179.5223 c 10.26546,-7.6189 -34.570072,-15.9929 -22.31788,-19.6413 12.25219,-3.6484 -20.698741,27.8886 -7.93761,28.6507 12.76113,0.7621 -16.202193,-34.4725 -4.471305,-29.3918 11.730885,5.0807 -33.782604,8.0591 -24.496878,16.8456 9.285726,8.7865 9.746873,-36.8221 15.467443,-25.3895 5.720569,11.4325 -31.05921,-15.5415 -29.593783,-2.8419 1.465427,12.6996 31.135269,-21.9421 28.168802,-9.5072 -2.966466,12.4349 -13.802866,-31.87 -20.843427,-21.1995 -7.040562,10.6704 37.955128,3.2047 27.689666,10.8236 -10.26546,7.6189 9.911992,-33.2861 -2.340201,-29.6377 -12.252193,3.6484 27.015353,26.852 14.254223,26.0899 -12.761126,-0.7621 28.98892,-19.1273 17.25804,-24.208 -11.73089,-5.0807 3.4348,37.935 -5.85093,29.1485 -9.28572,-8.7865 34.50161,3.9814 28.78104,-7.4512 -5.72057,-11.4325 -21.75293,31.2678 -23.21836,18.5682 -1.46543,-12.6996 23.87061,25.2271 26.83708,12.7921 2.96647,-12.4349 -36.76223,9.97 -29.72167,-0.7004 7.04056,-10.6704 2.07029,34.6688 12.33575,27.0499 z"
       transform="matrix(0.503029,0.08386162,-0.08386162,0.503029,533.09051,-2474.8095)" />
    <text
       xml:space="preserve"
       style="font-style:normal;font-variant:normal;font-weight:normal;font-stretch:normal;line-height:0%;font-family:'Liberation Sans',Arial,sans-serif;writing-mode:lr-tb;text-anchor:start;fill:#000000;fill-opacity:1;stroke:none;stroke-width:1pt;stroke-linecap:butt;stroke-linejoin:miter;stroke-opacity:1"
       x="149.3091"
       y="122.10365"
       id="text4499"><tspan
         sodipodi:role="line"
         id="tspan4500"
         x="149.3091"
         y="122.10365"
         style="font-size:3.979px;line-height:1.2">−0.43</tspan></text>
    <path
       sodipodi:type="star"
       style="color:#000000;fill:#00edff;fill-opacity:0.75;fill-rule:evenodd;stroke:#000000;stroke-width:0.711016;stroke-linecap:butt;stroke-linejoin:miter;stroke-miterlimit:4;stroke-dashoffset:0;stroke-opacity:1;marker:none;marker-start:none;marker-mid:none;marker-end:none"
       id="path5127"
       sodipodi:sides="5"
       sodipodi:cx="9.5541286"
       sodipodi:cy="5108.5903"
       sodipodi:r1="17.613136"
       sodipodi:r2="8.111702"
       sodipodi:arg1="-2.7000003"
       sodipodi:arg2="-2.0716818"
       inkscape:flatsided="false"
       inkscape:rounded="-8.9362223"
       inkscape:randomized="0"
       d="m -6.3694195,5101.0628 c -45.9649215,97.2335 106.3671095,-51.2338 12.0282892,0.4123 -94.3388237,51.646 112.8121803,3.3133 6.1336853,-10.3551 -106.678493,-13.6684 81.595477,85.329 3.32487,11.567 -78.270611,-73.7621 31.709689,108.3146 11.743675,2.6336 -19.9660129,-105.6811 -55.938331,103.97 -9.973406,6.7365 45.964926,-97.2335 -93.214517,63.6288 1.124305,11.9827 94.338821,-51.646 -116.167267,-21.072 -9.4887739,-7.4035 106.6784949,13.6684 -89.3194291,-68.9899 -11.0488169,4.7721 78.2706098,73.762 -15.8569882,-116.9932 4.1090221,-11.3122 19.9660107,105.6811 38.0120737,-106.2669 -7.9528498,-9.0334 z"
       transform="matrix(0.306731,-0.0426791,0.0426791,0.306731,-202.52219,-1440.0955)" />
    <text
       xml:space="preserve"
       style="font-style:normal;font-variant:normal;font-weight:normal;font-stretch:normal;line-height:0%;font-family:'Liberation Sans',Arial,sans-serif;writing-mode:lr-tb;text-anchor:start;fill:#000000;fill-opacity:1;stroke:none;stroke-width:1pt;stroke-linecap:butt;stroke-linejoin:miter;stroke-opacity:1"
       x="13.713703"
       y="140.0249"
       id="text6108"><tspan
         sodipodi:role="line"
         id="tspan5129"
         x="13.713703"
         y="140.0249"
         style="font-size:3.979px;line-height:1.2">−8.94</tspan></text>
    <path
       sodipodi:type="star"
       style="color:#000000;fill:#000000;fill-opacity:1;fill-rule:evenodd;stroke:none;stroke-width:0.18098;stroke-linecap:butt;stroke-linejoin:miter;stroke-miterlimit:4;stroke-dashoffset:0;stroke-opacity:1;marker:none;marker-start:none;marker-mid:none;marker-end:none"
       id="path5833"
       sodipodi:sides="4"
       sodipodi:cx="93.58579"
       sodipodi:cy="83.69278"
       sodipodi:r1="11.03049"
       sodipodi:r2="7.7997341"
       sodipodi:arg1="0.78539816"
       sodipodi:arg2="1.5707963"
       inkscape:flatsided="true"
       inkscape:rounded="0.39"
       inkscape:randomized="0"
       d="m 101.38553,91.492514 c -4.301894,4.301891 -11.297581,4.301891 -15.599472,0 -4.301891,-4.301891 -4.301891,-11.297578 0,-15.599469 4.301891,-4.301891 11.297578,-4.301891 15.599472,0 4.30189,4.301891 4.30189,11.297578 0,15.599469 z" />
    <text
       xml:space="preserve"
       style="font-style:normal;font-variant:normal;font-weight:normal;font-stretch:normal;line-height:0%;font-family:'Liberation Sans',Arial,sans-serif;writing-mode:lr-tb;text-anchor:start;fill:#ffffff;fill-opacity:1;stroke:none;stroke-width:1pt;stroke-linecap:butt;stroke-linejoin:miter;stroke-opacity:1"
       x="89.161873"
       y="85.14119"
       id="text5837"><tspan
         sodipodi:role="line"
         id="tspan5842"
         x="89.161873"
         y="85.14119"
         style="font-size:3.979px;line-height:1.2">0.39</tspan></text>
  </g>
</svg>
